Eric Ekholm - Unconsciousness in the Xmen
…
Next, let’s work on our locations dataset. First, let’s look at the most common locations. Again, since we only have 183 rows in our dataset that we’re modeling with, I only want to choose a handful of variables to include in the model here.

locations %>%
  count(location, sort = TRUE)

# A tibble: 785 × 2
   location                             n
   <chr>                            <int>
 1 X-Mansion                          100
 2 Danger Room                         27
 3 Space                               19
 4 Muir Island, Scotland               14
 5 Unspecified region in Australia     14
 6 Eagle Plaza, Dallas Texas           11
 7 Central Park                        10
 8 Morlock residence under New York    10
 9 Princess Lilandra's Home Planet     10
10 San Francisco                       10
# … with 775 more rows
…
