Eric Ekholm - Scooby Doo EDA
…
 [1] "Theft"            "Treasure"         "Natural Resource" "Competition"     
 [5] "Extortion"        "Safety"           "Counterfeit"      "Inheritance"     
 [9] "Smuggling"        "Preservation"     NA                 "Experimentation" 
[13] "Food"             "Trespassing"      "Assistance"       "Abduction"       
[17] "Haunt"            "Anger"            "Imagination"      "Bully"           
[21] "Loneliness"       "Training"         "Conquer"          "Mistake"         
[25] "Automated"        "Production"       "Entertainment"    "Simulation"      

And it’s probably useful to count these:

scooby_raw %>% 
  count(motive, sort = TRUE)

# A tibble: 28 × 2
   motive               n
   <chr>            <int>
 1 Competition        168
 2 Theft              125
 3 <NA>                67
 4 Treasure            54
 5 Conquer             42
 6 Natural Resource    26
 7 Smuggling           22
 8 Trespassing         15
 9 Abduction           12
10 Food                11
# … with 18 more rows
…
